<svg width="48" height="48" viewBox="0 0 48 48" fill="none" xmlns="http://www.w3.org/2000/svg">
<rect width="48" height="48" rx="24" transform="matrix(-1 0 0 1 48 0)" fill="white"/>
<g opacity="0.8">
<path d="M29.8332 24H18.1665" stroke="#E697A9" stroke-width="2" stroke-linecap="round" stroke-linejoin="round"/>
<path d="M23.9998 29.8334L18.1665 24L23.9998 18.1667" stroke="#E697A9" stroke-width="2" stroke-linecap="round" stroke-linejoin="round"/>
</g>
</svg>
