<svg width="10" height="7" viewBox="0 0 10 7" fill="none" xmlns="http://www.w3.org/2000/svg">
<path fill-rule="evenodd" clip-rule="evenodd" d="M5.83205 6.25193C5.43623 6.84566 4.56377 6.84566 4.16795 6.25192L1.03647 1.5547C0.59343 0.890144 1.06982 0 1.86852 0L8.13148 0C8.93018 0 9.40657 0.890145 8.96353 1.5547L5.83205 6.25193Z" fill="#0D71F0"/>
</svg>
