<svg width="25" height="19" viewBox="0 0 25 19" fill="none" xmlns="http://www.w3.org/2000/svg">
<path d="M23.75 5H1.25V8.375H23.75V5Z" fill="#2A89FF"/>
<path d="M5.1875 13.4375H6.3125" stroke="#2A89FF" stroke-width="1.28571" stroke-linecap="round" stroke-linejoin="round"/>
<path d="M10.25 13.4375H13.625" stroke="#2A89FF" stroke-width="1.28571" stroke-linecap="round" stroke-linejoin="round"/>
<path d="M22.0625 1.625H2.9375C2.00552 1.625 1.25 2.38052 1.25 3.3125V15.6875C1.25 16.6195 2.00552 17.375 2.9375 17.375H22.0625C22.9945 17.375 23.75 16.6195 23.75 15.6875V3.3125C23.75 2.38052 22.9945 1.625 22.0625 1.625Z" stroke="#0B57B7" stroke-width="1.28571" stroke-linecap="round" stroke-linejoin="round"/>
</svg>
