<svg width="46" height="50" viewBox="0 0 46 50" fill="none" xmlns="http://www.w3.org/2000/svg">
<g filter="url(#filter0_d)">
<circle cx="22.3208" cy="23.7638" r="17.5" fill="white"/>
</g>
<path d="M38.3189 30.5818C39.5108 27.9539 40.0315 25.0705 39.8348 22.1869C39.6381 19.3033 38.7301 16.5086 37.1912 14.0503C35.6524 11.592 33.5301 9.54603 31.0125 8.09358C28.4949 6.64113 25.6596 5.82704 22.7578 5.72342C19.856 5.61981 16.9773 6.22987 14.3766 7.49957C11.7759 8.76926 9.53348 10.6594 7.84804 13.0026C6.16259 15.3457 5.08612 18.0696 4.71397 20.9328C4.34182 23.7961 4.68548 26.7104 5.71451 29.4176L8.32749 28.4462C7.46135 26.1675 7.17209 23.7145 7.48533 21.3045C7.79857 18.8945 8.70464 16.6018 10.1233 14.6295C11.5419 12.6573 13.4294 11.0663 15.6184 9.99761C17.8075 8.9289 20.2305 8.4154 22.673 8.50262C25.1155 8.58983 27.5019 9.27505 29.621 10.4976C31.7401 11.7201 33.5264 13.4423 34.8217 15.5114C36.117 17.5806 36.8812 19.9329 37.0468 22.36C37.2124 24.7872 36.7741 27.2142 35.7709 29.4261L38.3189 30.5818Z" fill="url(#paint0_linear)"/>
<path d="M19.0253 25.2638H26.3663V24.0138H20.9572V23.9229L23.5708 21.1274C25.5708 18.9854 26.1617 17.9854 26.1617 16.6956C26.1617 14.9002 24.7072 13.4683 22.6617 13.4683C20.6219 13.4683 19.0708 14.8547 19.0708 16.9002H20.4117C20.4117 15.5763 21.2697 14.6956 22.6163 14.6956C23.8776 14.6956 24.8435 15.4683 24.8435 16.6956C24.8435 17.7695 24.2128 18.5649 22.8663 20.0365L19.0253 24.2411V25.2638Z" fill="black"/>
<path d="M14.2072 34.3547C15.1731 34.3547 15.8094 33.7638 15.9231 32.9911H15.2526C15.1276 33.4683 14.7299 33.7524 14.2072 33.7524C13.4117 33.7524 12.9003 33.0933 12.9003 32.082C12.9003 31.0933 13.4231 30.4456 14.2072 30.4456C14.7981 30.4456 15.1503 30.8092 15.2526 31.207H15.9231C15.8094 30.3888 15.1163 29.8433 14.1958 29.8433C13.014 29.8433 12.2299 30.7752 12.2299 32.1047C12.2299 33.4115 12.9799 34.3547 14.2072 34.3547ZM18.6759 34.3547C19.8577 34.3547 20.6532 33.457 20.6532 32.1047C20.6532 30.7411 19.8577 29.8433 18.6759 29.8433C17.4941 29.8433 16.6986 30.7411 16.6986 32.1047C16.6986 33.457 17.4941 34.3547 18.6759 34.3547ZM18.6759 33.7524C17.7782 33.7524 17.3691 32.9797 17.3691 32.1047C17.3691 31.2297 17.7782 30.4456 18.6759 30.4456C19.5736 30.4456 19.9827 31.2297 19.9827 32.1047C19.9827 32.9797 19.5736 33.7524 18.6759 33.7524ZM21.6766 34.2638H22.3471V31.5024C22.3471 30.9115 22.813 30.4797 23.4494 30.4797C23.6283 30.4797 23.813 30.5138 23.8584 30.5252V29.8433C23.7817 29.8377 23.6056 29.832 23.5062 29.832C22.9834 29.832 22.5289 30.1274 22.3698 30.5592H22.3244V29.9002H21.6766V34.2638ZM26.3499 34.3547C27.2363 34.3547 27.884 33.9115 28.0886 33.2524L27.4408 33.0706C27.2704 33.5252 26.8755 33.7524 26.3499 33.7524C25.563 33.7524 25.0204 33.2439 24.9891 32.3092H28.1567V32.0252C28.1567 30.4002 27.1908 29.8433 26.2817 29.8433C25.0999 29.8433 24.3158 30.7752 24.3158 32.1161C24.3158 33.457 25.0886 34.3547 26.3499 34.3547ZM24.9891 31.7297C25.0346 31.0507 25.5147 30.4456 26.2817 30.4456C27.009 30.4456 27.4749 30.9911 27.4749 31.7297H24.9891ZM32.2675 30.8774C32.0573 30.2581 31.5857 29.8433 30.7221 29.8433C29.8016 29.8433 29.1198 30.3661 29.1198 31.1047C29.1198 31.707 29.4778 32.1104 30.2789 32.2979L31.0062 32.4683C31.4465 32.5706 31.6539 32.7808 31.6539 33.082C31.6539 33.457 31.2562 33.7638 30.6312 33.7638C30.0829 33.7638 29.7391 33.528 29.6198 33.0592L28.9834 33.2183C29.1397 33.9598 29.7505 34.3547 30.6425 34.3547C31.6567 34.3547 32.3471 33.8007 32.3471 33.0479C32.3471 32.4399 31.9664 32.0564 31.188 31.8661L30.5403 31.707C30.0232 31.5791 29.7903 31.4058 29.7903 31.0706C29.7903 30.6956 30.188 30.4229 30.7221 30.4229C31.3073 30.4229 31.5488 30.7467 31.6653 31.0479L32.2675 30.8774Z" fill="black"/>
<defs>
<filter id="filter0_d" x="0.820801" y="6.26379" width="43" height="43" filterUnits="userSpaceOnUse" color-interpolation-filters="sRGB">
<feFlood flood-opacity="0" result="BackgroundImageFix"/>
<feColorMatrix in="SourceAlpha" type="matrix" values="0 0 0 0 0 0 0 0 0 0 0 0 0 0 0 0 0 0 127 0"/>
<feOffset dy="4"/>
<feGaussianBlur stdDeviation="2"/>
<feColorMatrix type="matrix" values="0 0 0 0 0 0 0 0 0 0 0 0 0 0 0 0 0 0 0.06 0"/>
<feBlend mode="normal" in2="BackgroundImageFix" result="effect1_dropShadow"/>
<feBlend mode="normal" in="SourceGraphic" in2="effect1_dropShadow" result="shape"/>
</filter>
<linearGradient id="paint0_linear" x1="39.041" y1="27.5281" x2="-0.133194" y2="23.3898" gradientUnits="userSpaceOnUse">
<stop stop-color="#2EB6FF"/>
<stop offset="0.572917" stop-color="#FFA82E"/>
<stop offset="1" stop-color="#F82FD8"/>
</linearGradient>
</defs>
</svg>
