<svg width="32" height="29" viewBox="0 0 32 29" fill="none" xmlns="http://www.w3.org/2000/svg">
<rect opacity="0.27" x="9.5" y="16.7255" width="19.313" height="14.2926" rx="1.14446" transform="rotate(-60 9.5 16.7255)" fill="url(#paint0_linear)"/>
<path d="M5.95898 14.0502L12.4544 2.50402C12.6603 2.13815 13.123 2.00728 13.4899 2.21115L22.4455 7.18646C22.8193 7.39416 22.9495 7.86855 22.7339 8.23794L20.4555 12.1427" stroke="#0D71F0" stroke-width="1.52595" stroke-linecap="round"/>
<path d="M9.01172 13.6687L15.1155 3.36853" stroke="#0D71F0" stroke-width="1.52595" stroke-linecap="round"/>
<path d="M12.8262 12.1427L17.0225 4.513" stroke="#0D71F0" stroke-width="1.52595" stroke-linecap="round"/>
<path d="M20.4558 18.2465V14.8131C20.4558 14.3918 20.1142 14.0502 19.6929 14.0502H1.76297C1.34159 14.0502 1 14.3918 1 14.8131V26.6392C1 27.0606 1.34159 27.4022 1.76297 27.4022H19.6929C20.1142 27.4022 20.4558 27.0606 20.4558 26.6392V25.1133M20.4558 18.2465H17.4039C16.9826 18.2465 16.641 18.5881 16.641 19.0095V22.0614C16.641 22.4828 16.9826 22.8244 17.4039 22.8244H21.2188C21.6402 22.8244 21.9818 22.4828 21.9818 22.0614V19.0095C21.9818 18.5881 21.6402 18.2465 21.2188 18.2465H20.4558Z" stroke="#0D71F0" stroke-width="1.52595" stroke-linecap="round"/>
<path d="M1 14.4316V11.7612C1 11.3398 1.34159 10.9982 1.76297 10.9982H5.19636" stroke="#0D71F0" stroke-width="1.52595" stroke-linecap="round"/>
<defs>
<linearGradient id="paint0_linear" x1="14.5117" y1="30.6041" x2="19.0376" y2="17.462" gradientUnits="userSpaceOnUse">
<stop stop-color="#0C64D3" stop-opacity="0.16"/>
<stop offset="1" stop-color="#0C64D3"/>
</linearGradient>
</defs>
</svg>
