<svg width="15" height="16" viewBox="0 0 15 16" fill="none" xmlns="http://www.w3.org/2000/svg">
<path d="M5.19995 15V8H9.39995V15" stroke="#0D71F0" stroke-width="1.16667" stroke-linecap="round" stroke-linejoin="round"/>
<path fill-rule="evenodd" clip-rule="evenodd" d="M1 5.9L7.3 1L13.6 5.9V13.6C13.6 14.3732 12.9732 15 12.2 15H2.4C1.6268 15 1 14.3732 1 13.6V5.9Z" stroke="#0B57B7" stroke-width="1.16667" stroke-linecap="round" stroke-linejoin="round"/>
</svg>
