<svg width="47" height="34" viewBox="0 0 47 34" fill="none" xmlns="http://www.w3.org/2000/svg">
<rect opacity="0.15" width="40.1204" height="28.1927" rx="3.25301" fill="url(#paint0_linear)"/>
<path d="M45.0001 11.9276H7.04834V17.6204H45.0001V11.9276Z" fill="url(#paint1_linear)"/>
<path d="M13.6899 26.1596H15.5875" stroke="#2A89FF" stroke-width="2.16867" stroke-linecap="round" stroke-linejoin="round"/>
<path d="M22.229 26.1596H27.9218" stroke="#2A89FF" stroke-width="2.16867" stroke-linecap="round" stroke-linejoin="round"/>
<path d="M42.1537 6.23486H9.89472C8.32271 6.23486 7.04834 7.50923 7.04834 9.08124V29.9547C7.04834 31.5267 8.32271 32.8011 9.89472 32.8011H42.1537C43.7257 32.8011 45.0001 31.5267 45.0001 29.9547V9.08124C45.0001 7.50923 43.7257 6.23486 42.1537 6.23486Z" stroke="#0B57B7" stroke-width="2.16867" stroke-linecap="round" stroke-linejoin="round"/>
<defs>
<linearGradient id="paint0_linear" x1="1.43138" y1="43.1703" x2="39.6588" y2="42.9291" gradientUnits="userSpaceOnUse">
<stop offset="0.00620394" stop-color="#5C33FF"/>
<stop offset="1" stop-color="#3399FF"/>
</linearGradient>
<linearGradient id="paint1_linear" x1="8.40235" y1="20.6447" x2="44.5333" y2="19.5767" gradientUnits="userSpaceOnUse">
<stop offset="0.00620394" stop-color="#5C33FF"/>
<stop offset="1" stop-color="#3399FF"/>
</linearGradient>
</defs>
</svg>
