<svg width="9" height="17" viewBox="0 0 9 17" fill="none" xmlns="http://www.w3.org/2000/svg">
<path d="M5.02354 8.02825C7.39002 9.2565 8.30763 10.0513 8.48382 11.6465C8.68627 13.4771 7.14004 15.0767 5.02354 15.3966V16.2273C5.02354 16.4322 4.94213 16.6288 4.79722 16.7737C4.6523 16.9186 4.45575 17 4.25081 17C4.04588 17 3.84933 16.9186 3.70441 16.7737C3.5595 16.6288 3.47809 16.4322 3.47809 16.2273V15.4016C2.67909 15.29 1.94732 15.0075 1.29127 14.6018C0.772383 14.2812 0.404565 13.9558 0.19477 13.7186C0.06132 13.5648 -0.00600643 13.3645 0.00742908 13.1613C0.0208646 12.9581 0.113976 12.7684 0.266517 12.6335C0.419059 12.4985 0.618697 12.4293 0.822024 12.4408C1.02535 12.4522 1.21593 12.5435 1.35231 12.6947C1.37318 12.7179 1.43075 12.7767 1.52347 12.8586C1.68691 13.0035 1.88125 13.1499 2.10302 13.2867C2.52468 13.5505 2.9905 13.7361 3.47809 13.8345V8.97175C1.11161 7.7435 0.193997 6.94875 0.017815 5.35345C-0.18464 3.52286 1.36159 1.92332 3.47809 1.60341V0.772727C3.47809 0.567787 3.5595 0.371241 3.70441 0.226327C3.84933 0.0814121 4.04588 0 4.25081 0C4.45575 0 4.6523 0.0814121 4.79722 0.226327C4.94213 0.371241 5.02354 0.567787 5.02354 0.772727V1.59839C5.82254 1.71005 6.55431 1.99248 7.21036 2.39816C7.72925 2.71884 8.09706 3.04416 8.30686 3.28139C8.44031 3.43522 8.50764 3.63552 8.4942 3.83872C8.48076 4.04193 8.38765 4.23162 8.23511 4.36654C8.08257 4.50147 7.88293 4.57072 7.67961 4.55924C7.47628 4.54776 7.2857 4.45648 7.14932 4.30525C7.09509 4.24776 7.03797 4.19308 6.97816 4.14143C6.79749 3.98252 6.60361 3.83931 6.39861 3.71334C5.97695 3.44947 5.51113 3.26387 5.02354 3.16548V8.02825ZM5.02354 13.8276C6.24831 13.5614 7.04422 12.689 6.94763 11.8162C6.86456 11.0627 6.37002 10.5419 5.02354 9.7835V13.8272V13.8276ZM3.47809 3.17282C2.25331 3.43864 1.45741 4.31105 1.554 5.18384C1.63707 5.93725 2.13161 6.45807 3.47809 7.2165V3.17282Z" fill="white"/>
</svg>
