<svg width="51" height="37" viewBox="0 0 51 37" fill="none" xmlns="http://www.w3.org/2000/svg">
<rect opacity="0.27" width="43.6866" height="30.6987" rx="2" fill="url(#paint0_linear)"/>
<path d="M48.9999 12.9879H7.6748V19.1866H48.9999V12.9879Z" fill="url(#paint1_linear)"/>
<path d="M14.9072 28.4849H16.9735" stroke="#2A89FF" stroke-width="2.36143" stroke-linecap="round" stroke-linejoin="round"/>
<path d="M24.2051 28.4849H30.4038" stroke="#2A89FF" stroke-width="2.36143" stroke-linecap="round" stroke-linejoin="round"/>
<path d="M45.9005 6.78905H10.7742C9.06245 6.78905 7.6748 8.17669 7.6748 9.88843V32.6172C7.6748 34.329 9.06245 35.7166 10.7742 35.7166H45.9005C47.6123 35.7166 48.9999 34.329 48.9999 32.6172V9.88843C48.9999 8.17669 47.6123 6.78905 45.9005 6.78905Z" stroke="#0B57B7" stroke-width="2.36143" stroke-linecap="round" stroke-linejoin="round"/>
<defs>
<linearGradient id="paint0_linear" x1="11.3367" y1="29.8094" x2="20.6644" y2="1.28439" gradientUnits="userSpaceOnUse">
<stop stop-color="#0C64D3" stop-opacity="0.16"/>
<stop offset="1" stop-color="#0C64D3"/>
</linearGradient>
<linearGradient id="paint1_linear" x1="9.14917" y1="22.4798" x2="48.4917" y2="21.3168" gradientUnits="userSpaceOnUse">
<stop offset="0.00620394" stop-color="#5C33FF"/>
<stop offset="1" stop-color="#3399FF"/>
</linearGradient>
</defs>
</svg>
