<svg width="12" height="15" viewBox="0 0 12 15" fill="none" xmlns="http://www.w3.org/2000/svg">
<path fill-rule="evenodd" clip-rule="evenodd" d="M1.29342 4.50552V6.07172H1.18921C0.533306 6.07172 0 6.60503 0 7.26093V13.8108C0 14.4667 0.533306 15 1.18921 15H10.329C10.9849 15 11.5182 14.4667 11.5182 13.8108V7.25787C11.5182 6.60196 10.9849 6.06866 10.329 6.06866H10.2983V4.50245C10.2983 2.01982 8.2785 0 5.79587 0C3.31324 0.00306498 1.29342 2.02289 1.29342 4.50552ZM6.46404 10.8255C6.37209 10.8929 6.34757 10.9573 6.34757 11.0646C6.35063 11.5458 6.35063 12.0239 6.35063 12.5051C6.35983 12.7043 6.25868 12.9005 6.08092 12.9894C5.66101 13.2039 5.24111 12.9036 5.24111 12.5051V12.502C5.24111 12.0208 5.24111 11.5396 5.24418 11.0584C5.24418 10.9604 5.22272 10.896 5.1369 10.8316C4.70168 10.5098 4.55762 9.96118 4.77524 9.47998C4.98672 9.01103 5.5047 8.73519 5.99203 8.83327C6.53453 8.9436 6.91152 9.37883 6.91765 9.92133C6.91765 10.2983 6.76747 10.6048 6.46404 10.8255ZM5.79587 1.97385C4.40131 1.97385 3.2642 3.10789 3.2642 4.50552V6.07172H8.32754V4.50552C8.32754 3.11095 7.1935 1.97385 5.79587 1.97385Z" fill="white"/>
</svg>
