<svg width="25" height="22" viewBox="0 0 25 22" fill="none" xmlns="http://www.w3.org/2000/svg">
<path fill-rule="evenodd" clip-rule="evenodd" d="M14.0626 2.74935L12.5006 0L12.5 0.000581626L0 21.9994H3.12529L14.0626 2.74935ZM15.6265 5.49985L6.25 22H9.37529L15.6259 11.1963L20.3126 19.2495H14.0626L12.5006 22H25L15.6265 5.49985Z" fill="#51AE32"/>
</svg>
